{
    "count": 1295,
    "next": "https://pokeapi.co/api/v2/pokemon-form?offset=70&limit=20",
    "previous": "https://pokeapi.co/api/v2/pokemon-form?offset=30&limit=20",
    "results": [
        {
            "name": "dugtrio",
            "url": "https://pokeapi.co/api/v2/pokemon-form/51/"
        },
        {
            "name": "meowth",
            "url": "https://pokeapi.co/api/v2/pokemon-form/52/"
        },
        {
            "name": "persian",
            "url": "https://pokeapi.co/api/v2/pokemon-form/53/"
        },
        {
            "name": "psyduck",
            "url": "https://pokeapi.co/api/v2/pokemon-form/54/"
        },
        {
            "name": "golduck",
            "url": "https://pokeapi.co/api/v2/pokemon-form/55/"
        },
        {
            "name": "mankey",
            "url": "https://pokeapi.co/api/v2/pokemon-form/56/"
        },
        {
            "name": "primeape",
            "url": "https://pokeapi.co/api/v2/pokemon-form/57/"
        },
        {
            "name": "growlithe",
            "url": "https://pokeapi.co/api/v2/pokemon-form/58/"
        },
        {
            "name": "arcanine",
            "url": "https://pokeapi.co/api/v2/pokemon-form/59/"
        },
        {
            "name": "poliwag",
            "url": "https://pokeapi.co/api/v2/pokemon-form/60/"
        },
        {
            "name": "poliwhirl",
            "url": "https://pokeapi.co/api/v2/pokemon-form/61/"
        },
        {
            "name": "poliwrath",
            "url": "https://pokeapi.co/api/v2/pokemon-form/62/"
        },
        {
            "name": "abra",
            "url": "https://pokeapi.co/api/v2/pokemon-form/63/"
        },
        {
            "name": "kadabra",
            "url": "https://pokeapi.co/api/v2/pokemon-form/64/"
        },
        {
            "name": "alakazam",
            "url": "https://pokeapi.co/api/v2/pokemon-form/65/"
        },
        {
            "name": "machop",
            "url": "https://pokeapi.co/api/v2/pokemon-form/66/"
        },
        {
            "name": "machoke",
            "url": "https://pokeapi.co/api/v2/pokemon-form/67/"
        },
        {
            "name": "machamp",
            "url": "https://pokeapi.co/api/v2/pokemon-form/68/"
        },
        {
            "name": "bellsprout",
            "url": "https://pokeapi.co/api/v2/pokemon-form/69/"
        },
        {
            "name": "weepinbell",
            "url": "https://pokeapi.co/api/v2/pokemon-form/70/"
        }
    ]
}